{"current_page":1,"data":[{"id":1,"title":"Yes Altitude 2","device_supports":"Data + VoLTE","status":"ACTIVE","release_datetime":"2018-06-08 00:00:00","image_path":"https:\/\/iot-yescrm.yes.my\/crm-ic\/rnr\/public\/storage\/supported_device_images\/Altitute-2.jpeg","brand_name":"Yes"},{"id":2,"title":"Honor 20","device_supports":"Data + VoLTE","status":"ACTIVE","release_datetime":"2019-05-21 00:00:00","image_path":"https:\/\/iot-yescrm.yes.my\/crm-ic\/rnr\/public\/storage\/supported_device_images\/Honor-20.jpeg","brand_name":"Honor"},{"id":3,"title":"Honor 20 Pro","device_supports":"Data + VoLTE","status":"ACTIVE","release_datetime":"2019-07-01 00:00:00","image_path":"https:\/\/iot-yescrm.yes.my\/crm-ic\/rnr\/public\/storage\/supported_device_images\/Honor-20-Pro.jpeg","brand_name":"Honor"},{"id":4,"title":"Honor 8 Pro","device_supports":"Data + VoLTE","status":"ACTIVE","release_datetime":"2017-04-01 00:00:00","image_path":"https:\/\/iot-yescrm.yes.my\/crm-ic\/rnr\/public\/storage\/supported_device_images\/Huawei-Honor-8-Pro.jpeg","brand_name":"Honor"},{"id":5,"title":"Honor 8A","device_supports":"Data + VoLTE","status":"ACTIVE","release_datetime":"2020-04-10 00:00:00","image_path":"https:\/\/iot-yescrm.yes.my\/crm-ic\/rnr\/public\/storage\/supported_device_images\/Huawei-Honor-8A.jpeg","brand_name":"Honor"},{"id":6,"title":"Honor 8x","device_supports":"Data + VoLTE","status":"ACTIVE","release_datetime":"2018-10-24 00:00:00","image_path":"https:\/\/iot-yescrm.yes.my\/crm-ic\/rnr\/public\/storage\/supported_device_images\/huawei-honor-8x.jpeg","brand_name":"Honor"},{"id":7,"title":"Honor 8x Max","device_supports":"Data Only","status":"ACTIVE","release_datetime":"2018-09-01 00:00:00","image_path":"https:\/\/iot-yescrm.yes.my\/crm-ic\/rnr\/public\/storage\/supported_device_images\/Huawei-Honor-8x-Max.jpeg","brand_name":"Honor"},{"id":8,"title":"Honor 9A","device_supports":"Data + VoLTE","status":"ACTIVE","release_datetime":"2020-07-10 00:00:00","image_path":"https:\/\/iot-yescrm.yes.my\/crm-ic\/rnr\/public\/storage\/supported_device_images\/Honor-9A.jpeg","brand_name":"Honor"},{"id":9,"title":"Honor 9X Pro","device_supports":"Data + VoLTE","status":"ACTIVE","release_datetime":"2020-07-10 00:00:00","image_path":"https:\/\/iot-yescrm.yes.my\/crm-ic\/rnr\/public\/storage\/supported_device_images\/Honor-9x-Pro.jpeg","brand_name":"Honor"},{"id":10,"title":"Honor Play","device_supports":"Data + VoLTE","status":"ACTIVE","release_datetime":"2018-08-01 00:00:00","image_path":"https:\/\/iot-yescrm.yes.my\/crm-ic\/rnr\/public\/storage\/supported_device_images\/Huawei-Honor-Play.jpeg","brand_name":"Honor"},{"id":11,"title":"Honor View 10","device_supports":"Data + VoLTE","status":"ACTIVE","release_datetime":"2018-01-01 00:00:00","image_path":"https:\/\/iot-yescrm.yes.my\/crm-ic\/rnr\/public\/storage\/supported_device_images\/Huawei-Honor-View-10.jpeg","brand_name":"Honor"},{"id":12,"title":"Honor View 20","device_supports":"Data + VoLTE","status":"ACTIVE","release_datetime":"2019-01-29 00:00:00","image_path":"https:\/\/iot-yescrm.yes.my\/crm-ic\/rnr\/public\/storage\/supported_device_images\/Honor-View-20.jpeg","brand_name":"Honor"},{"id":13,"title":"Huawei Mate 10","device_supports":"Data + VoLTE","status":"ACTIVE","release_datetime":"2017-10-01 00:00:00","image_path":"https:\/\/iot-yescrm.yes.my\/crm-ic\/rnr\/public\/storage\/supported_device_images\/Huawei-Mate-10-New_0.jpeg","brand_name":"Huawei"},{"id":14,"title":"Huawei Mate 10 Pro","device_supports":"Data + VoLTE","status":"ACTIVE","release_datetime":"2017-11-01 00:00:00","image_path":"https:\/\/iot-yescrm.yes.my\/crm-ic\/rnr\/public\/storage\/supported_device_images\/Mate-10-Pro.jpeg","brand_name":"Huawei"},{"id":15,"title":"Huawei Mate 20","device_supports":"Data + VoLTE","status":"ACTIVE","release_datetime":"2018-10-16 00:00:00","image_path":"https:\/\/iot-yescrm.yes.my\/crm-ic\/rnr\/public\/storage\/supported_device_images\/Huawei-Mate-20.jpeg","brand_name":"Huawei"}],"first_page_url":"https:\/\/10.26.64.119\/crm-ic\/rnr\/public\/api\/manage_device\/device_list?page=1","from":1,"last_page":50,"last_page_url":"https:\/\/10.26.64.119\/crm-ic\/rnr\/public\/api\/manage_device\/device_list?page=50","links":[{"url":null,"label":"&laquo; Previous","active":false},{"url":"https:\/\/10.26.64.119\/crm-ic\/rnr\/public\/api\/manage_device\/device_list?page=1","label":"1","active":true},{"url":"https:\/\/10.26.64.119\/crm-ic\/rnr\/public\/api\/manage_device\/device_list?page=2","label":"2","active":false},{"url":"https:\/\/10.26.64.119\/crm-ic\/rnr\/public\/api\/manage_device\/device_list?page=3","label":"3","active":false},{"url":"https:\/\/10.26.64.119\/crm-ic\/rnr\/public\/api\/manage_device\/device_list?page=4","label":"4","active":false},{"url":"https:\/\/10.26.64.119\/crm-ic\/rnr\/public\/api\/manage_device\/device_list?page=5","label":"5","active":false},{"url":"https:\/\/10.26.64.119\/crm-ic\/rnr\/public\/api\/manage_device\/device_list?page=6","label":"6","active":false},{"url":"https:\/\/10.26.64.119\/crm-ic\/rnr\/public\/api\/manage_device\/device_list?page=7","label":"7","active":false},{"url":"https:\/\/10.26.64.119\/crm-ic\/rnr\/public\/api\/manage_device\/device_list?page=8","label":"8","active":false},{"url":"https:\/\/10.26.64.119\/crm-ic\/rnr\/public\/api\/manage_device\/device_list?page=9","label":"9","active":false},{"url":"https:\/\/10.26.64.119\/crm-ic\/rnr\/public\/api\/manage_device\/device_list?page=10","label":"10","active":false},{"url":null,"label":"...","active":false},{"url":"https:\/\/10.26.64.119\/crm-ic\/rnr\/public\/api\/manage_device\/device_list?page=49","label":"49","active":false},{"url":"https:\/\/10.26.64.119\/crm-ic\/rnr\/public\/api\/manage_device\/device_list?page=50","label":"50","active":false},{"url":"https:\/\/10.26.64.119\/crm-ic\/rnr\/public\/api\/manage_device\/device_list?page=2","label":"Next &raquo;","active":false}],"next_page_url":"https:\/\/10.26.64.119\/crm-ic\/rnr\/public\/api\/manage_device\/device_list?page=2","path":"https:\/\/10.26.64.119\/crm-ic\/rnr\/public\/api\/manage_device\/device_list","per_page":15,"prev_page_url":null,"to":15,"total":739}