{"current_page":1,"data":[{"id":56,"title":"Leagoo M6","device_supports":"Data + VoLTE","status":"ACTIVE","release_datetime":"2017-01-01 00:00:00","image_path":"https:\/\/iot-yescrm.yes.my\/crm-ic\/rnr\/public\/storage\/supported_device_images\/leagoo-leagoo-m6.jpeg","brand_name":"Leagoo"},{"id":57,"title":"Nokia 1","device_supports":"Data + VoLTE","status":"ACTIVE","release_datetime":"2018-02-25 00:00:00","image_path":"https:\/\/iot-yescrm.yes.my\/crm-ic\/rnr\/public\/storage\/supported_device_images\/Nokia-1.jpeg","brand_name":"Nokia"},{"id":58,"title":"Nokia 1 Plus","device_supports":"Data + VoLTE","status":"ACTIVE","release_datetime":"2019-02-01 00:00:00","image_path":"https:\/\/iot-yescrm.yes.my\/crm-ic\/rnr\/public\/storage\/supported_device_images\/Nokia-1-Plus.jpeg","brand_name":"Nokia"},{"id":59,"title":"Nokia 2","device_supports":"Data + VoLTE","status":"ACTIVE","release_datetime":"2017-10-13 00:00:00","image_path":"https:\/\/iot-yescrm.yes.my\/crm-ic\/rnr\/public\/storage\/supported_device_images\/nokia-2.jpeg","brand_name":"Nokia"},{"id":60,"title":"Nokia 2.1","device_supports":"Data + VoLTE","status":"ACTIVE","release_datetime":"2018-05-01 00:00:00","image_path":"https:\/\/iot-yescrm.yes.my\/crm-ic\/rnr\/public\/storage\/supported_device_images\/Nokia-2.1.jpg","brand_name":"Nokia"},{"id":61,"title":"Nokia 2.2","device_supports":"Data + VoLTE","status":"ACTIVE","release_datetime":"2019-06-11 00:00:00","image_path":"https:\/\/iot-yescrm.yes.my\/crm-ic\/rnr\/public\/storage\/supported_device_images\/Nokia-2.2.jpg","brand_name":"Nokia"},{"id":62,"title":"Nokia 3","device_supports":"Data + VoLTE","status":"ACTIVE","release_datetime":"2017-06-17 00:00:00","image_path":"https:\/\/iot-yescrm.yes.my\/crm-ic\/rnr\/public\/storage\/supported_device_images\/nokia-3.jpeg","brand_name":"Nokia"},{"id":63,"title":"Nokia 3.1","device_supports":"Data + VoLTE","status":"ACTIVE","release_datetime":"2019-06-01 00:00:00","image_path":"https:\/\/iot-yescrm.yes.my\/crm-ic\/rnr\/public\/storage\/supported_device_images\/Nokia-3.1.jpg","brand_name":"Nokia"},{"id":64,"title":"Nokia 3.2","device_supports":"Data + VoLTE","status":"ACTIVE","release_datetime":"2019-05-21 00:00:00","image_path":"https:\/\/iot-yescrm.yes.my\/crm-ic\/rnr\/public\/storage\/supported_device_images\/Nokia-3.2.jpeg","brand_name":"Nokia"},{"id":65,"title":"Nokia 4.2","device_supports":"Data + VoLTE","status":"ACTIVE","release_datetime":"2019-05-14 00:00:00","image_path":"https:\/\/iot-yescrm.yes.my\/crm-ic\/rnr\/public\/storage\/supported_device_images\/Nokia-4.2.jpeg","brand_name":"Nokia"},{"id":66,"title":"Nokia 5","device_supports":"Data + VoLTE","status":"ACTIVE","release_datetime":"2017-07-17 00:00:00","image_path":"https:\/\/iot-yescrm.yes.my\/crm-ic\/rnr\/public\/storage\/supported_device_images\/nokia-5.jpeg","brand_name":"Nokia"},{"id":67,"title":"Nokia 5.1","device_supports":"Data + VoLTE","status":"ACTIVE","release_datetime":"2018-05-14 00:00:00","image_path":"https:\/\/iot-yescrm.yes.my\/crm-ic\/rnr\/public\/storage\/supported_device_images\/NOkia-5.1.jpeg","brand_name":"Nokia"},{"id":68,"title":"Nokia 6","device_supports":"Data + VoLTE","status":"ACTIVE","release_datetime":"2017-01-20 00:00:00","image_path":"https:\/\/iot-yescrm.yes.my\/crm-ic\/rnr\/public\/storage\/supported_device_images\/nokia-Nokia_6.jpeg","brand_name":"Nokia"},{"id":69,"title":"Nokia 6.1","device_supports":"Data + VoLTE","status":"ACTIVE","release_datetime":"2018-01-07 00:00:00","image_path":"https:\/\/iot-yescrm.yes.my\/crm-ic\/rnr\/public\/storage\/supported_device_images\/Nokia-6.1.jpg","brand_name":"Nokia"},{"id":70,"title":"Nokia 6.1 Plus","device_supports":"Data + VoLTE","status":"ACTIVE","release_datetime":"2018-08-30 00:00:00","image_path":"https:\/\/iot-yescrm.yes.my\/crm-ic\/rnr\/public\/storage\/supported_device_images\/Nokia-6.1-Plus.jpeg","brand_name":"Nokia"}],"first_page_url":"https:\/\/10.26.64.119\/crm-ic\/rnr\/public\/api\/manage_device\/device_list?page=1","from":1,"last_page":2,"last_page_url":"https:\/\/10.26.64.119\/crm-ic\/rnr\/public\/api\/manage_device\/device_list?page=2","links":[{"url":null,"label":"&laquo; Previous","active":false},{"url":"https:\/\/10.26.64.119\/crm-ic\/rnr\/public\/api\/manage_device\/device_list?page=1","label":"1","active":true},{"url":"https:\/\/10.26.64.119\/crm-ic\/rnr\/public\/api\/manage_device\/device_list?page=2","label":"2","active":false},{"url":"https:\/\/10.26.64.119\/crm-ic\/rnr\/public\/api\/manage_device\/device_list?page=2","label":"Next &raquo;","active":false}],"next_page_url":"https:\/\/10.26.64.119\/crm-ic\/rnr\/public\/api\/manage_device\/device_list?page=2","path":"https:\/\/10.26.64.119\/crm-ic\/rnr\/public\/api\/manage_device\/device_list","per_page":15,"prev_page_url":null,"to":15,"total":26}