{"current_page":1,"data":[{"id":13,"title":"Huawei Mate 10","device_supports":"Data + VoLTE","status":"ACTIVE","release_datetime":"2017-10-01 00:00:00","image_path":"https:\/\/iot-yescrm.yes.my\/crm-ic\/rnr\/public\/storage\/supported_device_images\/Huawei-Mate-10-New_0.jpeg","brand_name":"Huawei"},{"id":14,"title":"Huawei Mate 10 Pro","device_supports":"Data + VoLTE","status":"ACTIVE","release_datetime":"2017-11-01 00:00:00","image_path":"https:\/\/iot-yescrm.yes.my\/crm-ic\/rnr\/public\/storage\/supported_device_images\/Mate-10-Pro.jpeg","brand_name":"Huawei"},{"id":15,"title":"Huawei Mate 20","device_supports":"Data + VoLTE","status":"ACTIVE","release_datetime":"2018-10-16 00:00:00","image_path":"https:\/\/iot-yescrm.yes.my\/crm-ic\/rnr\/public\/storage\/supported_device_images\/Huawei-Mate-20.jpeg","brand_name":"Huawei"},{"id":16,"title":"Huawei Mate 20 Pro","device_supports":"Data + VoLTE","status":"ACTIVE","release_datetime":"2018-10-16 00:00:00","image_path":"https:\/\/iot-yescrm.yes.my\/crm-ic\/rnr\/public\/storage\/supported_device_images\/Huawei-Mate-20-Pro.jpeg","brand_name":"Huawei"},{"id":17,"title":"Huawei Mate 20X","device_supports":"Data + VoLTE","status":"ACTIVE","release_datetime":"2018-10-16 00:00:00","image_path":"https:\/\/iot-yescrm.yes.my\/crm-ic\/rnr\/public\/storage\/supported_device_images\/Huawei-Mate-20-X.jpeg","brand_name":"Huawei"},{"id":18,"title":"Huawei Mate 30","device_supports":"Data + VoLTE","status":"ACTIVE","release_datetime":"2019-09-26 00:00:00","image_path":"https:\/\/iot-yescrm.yes.my\/crm-ic\/rnr\/public\/storage\/supported_device_images\/Huawei-Mate-30.jpeg","brand_name":"Huawei"},{"id":19,"title":"Huawei Mate 30 Pro","device_supports":"Data + VoLTE","status":"ACTIVE","release_datetime":"2019-09-26 00:00:00","image_path":"https:\/\/iot-yescrm.yes.my\/crm-ic\/rnr\/public\/storage\/supported_device_images\/Huawei-Mate-30-Pro.jpeg","brand_name":"Huawei"},{"id":20,"title":"Huawei Mate 40 Pro","device_supports":"Data + VoLTE","status":"ACTIVE","release_datetime":"2020-10-22 00:00:00","image_path":"https:\/\/iot-yescrm.yes.my\/crm-ic\/rnr\/public\/storage\/supported_device_images\/Huawei-Mate-40-Pro.jpeg","brand_name":"Huawei"},{"id":21,"title":"Huawei Mate 8","device_supports":"Data + VoLTE","status":"ACTIVE","release_datetime":"2015-11-26 00:00:00","image_path":"https:\/\/iot-yescrm.yes.my\/crm-ic\/rnr\/public\/storage\/supported_device_images\/Huawei-Mate-8.jpeg","brand_name":"Huawei"},{"id":22,"title":"Huawei Mate 9","device_supports":"Data + VoLTE","status":"ACTIVE","release_datetime":"2016-12-01 00:00:00","image_path":"https:\/\/iot-yescrm.yes.my\/crm-ic\/rnr\/public\/storage\/supported_device_images\/huawei-mate9.jpeg","brand_name":"Huawei"},{"id":23,"title":"Huawei Mate 9 Pro","device_supports":"Data + VoLTE","status":"ACTIVE","release_datetime":"2016-12-01 00:00:00","image_path":"https:\/\/iot-yescrm.yes.my\/crm-ic\/rnr\/public\/storage\/supported_device_images\/Huawei-Mate-9-Pro_0.jpeg","brand_name":"Huawei"},{"id":24,"title":"Huawei Mate Xs","device_supports":"Data + VoLTE","status":"ACTIVE","release_datetime":"2019-06-01 00:00:00","image_path":"https:\/\/iot-yescrm.yes.my\/crm-ic\/rnr\/public\/storage\/supported_device_images\/Huawei-Mate-Xs.jpeg","brand_name":"Huawei"},{"id":25,"title":"Huawei Nova 2 Plus","device_supports":"Data + VoLTE","status":"ACTIVE","release_datetime":"2017-06-01 00:00:00","image_path":"https:\/\/iot-yescrm.yes.my\/crm-ic\/rnr\/public\/storage\/supported_device_images\/Huawei-Nova-2-Plus.jpeg","brand_name":"Huawei"},{"id":26,"title":"Huawei Nova 2i","device_supports":"Data + VoLTE","status":"ACTIVE","release_datetime":"2017-10-01 00:00:00","image_path":"https:\/\/iot-yescrm.yes.my\/crm-ic\/rnr\/public\/storage\/supported_device_images\/Huawei-Nova-2i.jpeg","brand_name":"Huawei"},{"id":27,"title":"Huawei Nova 3","device_supports":"Data + VoLTE","status":"ACTIVE","release_datetime":"2018-08-22 00:00:00","image_path":"https:\/\/iot-yescrm.yes.my\/crm-ic\/rnr\/public\/storage\/supported_device_images\/Huawei-Nova-3.jpeg","brand_name":"Huawei"}],"first_page_url":"https:\/\/10.26.64.119\/crm-ic\/rnr\/public\/api\/manage_device\/device_list?page=1","from":1,"last_page":7,"last_page_url":"https:\/\/10.26.64.119\/crm-ic\/rnr\/public\/api\/manage_device\/device_list?page=7","links":[{"url":null,"label":"&laquo; Previous","active":false},{"url":"https:\/\/10.26.64.119\/crm-ic\/rnr\/public\/api\/manage_device\/device_list?page=1","label":"1","active":true},{"url":"https:\/\/10.26.64.119\/crm-ic\/rnr\/public\/api\/manage_device\/device_list?page=2","label":"2","active":false},{"url":"https:\/\/10.26.64.119\/crm-ic\/rnr\/public\/api\/manage_device\/device_list?page=3","label":"3","active":false},{"url":"https:\/\/10.26.64.119\/crm-ic\/rnr\/public\/api\/manage_device\/device_list?page=4","label":"4","active":false},{"url":"https:\/\/10.26.64.119\/crm-ic\/rnr\/public\/api\/manage_device\/device_list?page=5","label":"5","active":false},{"url":"https:\/\/10.26.64.119\/crm-ic\/rnr\/public\/api\/manage_device\/device_list?page=6","label":"6","active":false},{"url":"https:\/\/10.26.64.119\/crm-ic\/rnr\/public\/api\/manage_device\/device_list?page=7","label":"7","active":false},{"url":"https:\/\/10.26.64.119\/crm-ic\/rnr\/public\/api\/manage_device\/device_list?page=2","label":"Next &raquo;","active":false}],"next_page_url":"https:\/\/10.26.64.119\/crm-ic\/rnr\/public\/api\/manage_device\/device_list?page=2","path":"https:\/\/10.26.64.119\/crm-ic\/rnr\/public\/api\/manage_device\/device_list","per_page":15,"prev_page_url":null,"to":15,"total":91}